Manipulating `phonfieldwork` data with `tidyverse` • phonfieldwork
…
As we can see from df print there are three indices in the dataset: p_id – paragraph id, s_id – sentence id and w_id – word id.

df %>%
  filter(free_trans != "") %>%
  select(p_id, s_id, w_id, txt, gls, free_trans) %>%
  group_by(p_id, s_id, free_trans, w_id) %>%
  summarise(txt = str_c(txt, collapse = ""),
         gls = str_c(gls, collapse = "-"))
#> `summarise()` regrouping output by 'p_id', 's_id', 'free_trans' (override with `.groups` argument)
#> # A tibble: 136 x 6
#> # Groups:   p_id, s_id, free_trans [19]
#>     p_id  s_id free_trans                        w_id txt              gls                       
#>    <dbl> <dbl> <chr>                            <dbl> <chr>            <chr>                     
#>  1     1     1 Жил-был (у Гъули?) петух.            1 б-ик1-о-й=гъоди  "an-быть-pst-cvb(pf)-=rep"
#>  2     1     1 Жил-был (у Гъули?) петух.            2 б--о-ч1игу=гъоди "an--pst-neg.cvb-=rep"    
#>  3     1     1 Жил-был (у Гъули?) петух.            3 Гъули-б          "Гъули-an(gen)"           
#>  4     1     1 Жил-был (у Гъули?) петух.            4 х1елеко          "петух"                   
#>  5     1     1 Жил-был (у Гъули?) петух.            5 .                ""                        
#>  6     2     2 Он грелся на улице(?).               6 къват1и-ла=гъоди "улица-in-=rep"           
#>  7     2     2 Он грелся на улице(?).               7 б-ик1-о-j        "an-быть-pst-cvb(pf)"     
#>  8     2     2 Он грелся на улице(?).               8 букьир-ъа        "Букир-sup"               
#>  9     2     2 Он грелся на улице(?).               9 .                ""                        
#> 10     2     3 [Ему в ногу] воткнулась колючка.    10 къинни-й=гъоди   "втыкаться-cvb(pf)-=rep"  
#> # … with 126 more rows
…
